{"content":[{"productId":1,"productName":"Rubicon","image":"http://localhost:5000/images/30481e08-994f-497d-8650-d276707fc4f1.jpg","description":"This is a Most powerful 4x4 Car by JEEP","quantity":12,"price":7000000.0,"discount":8.0,"specialPrice":52044.0}],"pageNumber":0,"pageSize":1,"totalElements":3,"totalPages":3,"lastPage":false}